<?xml version="1.0" encoding="iso-8859-1"?>
<!-- Generator: Adobe Illustrator 19.0.0, SVG Export Plug-In . SVG Version: 6.00 Build 0)  -->
<svg version="1.1" id="Capa_1" xmlns="http://www.w3.org/2000/svg" xmlns:xlink="http://www.w3.org/1999/xlink" x="0px" y="0px"
	 viewBox="0 0 480 480" style="enable-background:new 0 0 480 480;" xml:space="preserve">
<g>
	<g>
		<rect x="167.999" y="40" width="112" height="16"/>
	</g>
</g>
<g>
	<g>
		<rect x="207.999" y="432" width="32" height="16"/>
	</g>
</g>
<g>
	<g>
		<path d="M311.999,272h-32c-4.418,0-8,3.582-8,8v32c0,4.418,3.582,8,8,8h32c4.418,0,8-3.582,8-8v-32
			C319.999,275.582,316.417,272,311.999,272z M303.999,304h-16v-16h16V304z"/>
	</g>
</g>
<g>
	<g>
		<rect x="143.999" y="272" width="112" height="16"/>
	</g>
</g>
<g>
	<g>
		<rect x="175.999" y="304" width="80" height="16"/>
	</g>
</g>
<g>
	<g>
		<rect x="143.999" y="304" width="16" height="16"/>
	</g>
</g>
<g>
	<g>
		<path d="M103.999,168c-17.673,0-32,14.327-32,32s14.327,32,32,32s32-14.327,32-32S121.672,168,103.999,168z M103.999,216
			c-8.837,0-16-7.163-16-16s7.163-16,16-16s16,7.163,16,16S112.836,216,103.999,216z"/>
	</g>
</g>
<g>
	<g>
		<rect x="223.999" y="184" width="16" height="32"/>
	</g>
</g>
<g>
	<g>
		<path d="M391.999,152h-40V40c-0.026-22.08-17.92-39.974-40-40h-176c-22.08,0.026-39.974,17.92-40,40v96.552
			c-35.041,4.392-59.887,36.359-55.495,71.4c2.884,23.007,17.996,42.65,39.495,51.336V344c0,4.418,3.582,8,8,8h8v88
			c0.026,22.08,17.92,39.974,40,40h176c22.08-0.026,39.974-17.92,40-40V248h40c26.51,0,48-21.49,48-48
			C439.999,173.49,418.509,152,391.999,152z M111.999,40c0-13.255,10.745-24,24-24h176c13.255,0,24,10.745,24,24v32h-224V40z
			 M55.999,200c0-26.51,21.49-48,48-48c26.51,0,48,21.49,48,48c0,26.51-21.49,48-48,48C77.5,247.974,56.026,226.499,55.999,200z
			 M95.999,336v-72.552c2.653,0.35,5.324,0.534,8,0.552c2.676-0.018,5.347-0.202,8-0.552V336H95.999z M335.999,440
			c0,13.255-10.745,24-24,24h-176c-13.255,0-24-10.745-24-24v-24h224V440z M335.999,400h-224v-48h8c4.418,0,8-3.582,8-8v-84.712
			c32.744-13.229,48.565-50.497,35.336-83.241c-8.686-21.499-28.329-36.611-51.336-39.495V88h224v64h-104c-26.51,0-48,21.49-48,48
			c0,26.51,21.49,48,48,48h104V400z M391.999,232h-160c-17.673,0-32-14.327-32-32s14.327-32,32-32h160c17.673,0,32,14.327,32,32
			S409.672,232,391.999,232z"/>
	</g>
</g>
<g>
</g>
<g>
</g>
<g>
</g>
<g>
</g>
<g>
</g>
<g>
</g>
<g>
</g>
<g>
</g>
<g>
</g>
<g>
</g>
<g>
</g>
<g>
</g>
<g>
</g>
<g>
</g>
<g>
</g>
</svg>
